<?xml version="1.0" encoding="UTF-8" standalone="no"?>
<!-- Created with Inkscape (http://www.inkscape.org/) -->
<svg
   xmlns:dc="http://purl.org/dc/elements/1.1/"
   xmlns:cc="http://web.resource.org/cc/"
   xmlns:rdf="http://www.w3.org/1999/02/22-rdf-syntax-ns#"
   xmlns:svg="http://www.w3.org/2000/svg"
   xmlns="http://www.w3.org/2000/svg"
   xmlns:xlink="http://www.w3.org/1999/xlink"
   xmlns:sodipodi="http://sodipodi.sourceforge.net/DTD/sodipodi-0.dtd"
   xmlns:inkscape="http://www.inkscape.org/namespaces/inkscape"
   width="744.09448"
   height="700"
   id="svg2"
   sodipodi:version="0.32"
   inkscape:version="0.44+devel"
   sodipodi:docbase="C:\Documents and Settings\Molumen\Desktop"
   sodipodi:docname="Jack123_Luca_Benazzi_1.svg"
   inkscape:output_extension="org.inkscape.output.svg.inkscape"
   version="1.0"
   sodipodi:modified="true">
  <defs
     id="defs4">
    <linearGradient
       inkscape:collect="always"
       id="linearGradient3427">
      <stop
         style="stop-color:#999999;stop-opacity:1"
         offset="0"
         id="stop3429" />
      <stop
         style="stop-color:#e6e6e6;stop-opacity:0"
         offset="1"
         id="stop3431" />
    </linearGradient>
    <linearGradient
       id="linearGradient3271"
       inkscape:collect="always">
      <stop
         id="stop3273"
         offset="0"
         style="stop-color:#999999;stop-opacity:0" />
      <stop
         id="stop3275"
         offset="1"
         style="stop-color:#e6e6e6;stop-opacity:1" />
    </linearGradient>
    <linearGradient
       id="linearGradient3224">
      <stop
         id="stop3226"
         offset="0"
         style="stop-color:#53301a;stop-opacity:1;" />
      <stop
         style="stop-color:#8d5632;stop-opacity:1;"
         offset="1"
         id="stop3228" />
    </linearGradient>
    <linearGradient
       inkscape:collect="always"
       id="linearGradient2801">
      <stop
         style="stop-color:#f8f8f8;stop-opacity:1;"
         offset="0"
         id="stop2803" />
      <stop
         style="stop-color:#f8f8f8;stop-opacity:0;"
         offset="1"
         id="stop2805" />
    </linearGradient>
    <linearGradient
       id="linearGradient16399">
      <stop
         style="stop-color:#e0c8b1;stop-opacity:1"
         offset="1"
         id="stop16403" />
    </linearGradient>
    <linearGradient
       id="linearGradient11043">
      <stop
         style="stop-color:white;stop-opacity:1;"
         offset="0"
         id="stop11045" />
      <stop
         style="stop-color:white;stop-opacity:0;"
         offset="1"
         id="stop11047" />
    </linearGradient>
    <linearGradient
       id="linearGradient15550">
      <stop
         style="stop-color:black;stop-opacity:1;"
         offset="0"
         id="stop15552" />
      <stop
         id="stop15558"
         offset="0.98214287"
         style="stop-color:black;stop-opacity:1;" />
      <stop
         style="stop-color:black;stop-opacity:0;"
         offset="1"
         id="stop15554" />
    </linearGradient>
    <linearGradient
       id="linearGradient11117">
      <stop
         style="stop-color:#814b29;stop-opacity:1;"
         offset="0"
         id="stop11119" />
      <stop
         id="stop2872"
         offset="1"
         style="stop-color:#a2633a;stop-opacity:1" />
    </linearGradient>
    <linearGradient
       id="linearGradient10224">
      <stop
         style="stop-color:#b8804d;stop-opacity:1;"
         offset="0"
         id="stop10226" />
      <stop
         id="stop3759"
         offset="1"
         style="stop-color:#cd986e;stop-opacity:1" />
    </linearGradient>
    <linearGradient
       id="linearGradient9331">
      <stop
         style="stop-color:#7e4d35;stop-opacity:1;"
         offset="0"
         id="stop9333" />
      <stop
         style="stop-color:#d1a792;stop-opacity:1;"
         offset="1"
         id="stop9335" />
    </linearGradient>
    <linearGradient
       id="linearGradient8438">
      <stop
         style="stop-color:#ba875d;stop-opacity:1;"
         offset="0"
         id="stop8440" />
      <stop
         id="stop6181"
         offset="1"
         style="stop-color:#f2e8e0;stop-opacity:1;" />
      <stop
         style="stop-color:#ba875d;stop-opacity:0;"
         offset="1"
         id="stop8442" />
    </linearGradient>
    <linearGradient
       id="linearGradient3108">
      <stop
         id="stop7551"
         offset="0"
         style="stop-color:#c9996a;stop-opacity:1;" />
      <stop
         style="stop-color:#c9996a;stop-opacity:0.49803922;"
         offset="1"
         id="stop16449" />
      <stop
         style="stop-color:#c9996a;stop-opacity:0;"
         offset="1"
         id="stop3112" />
    </linearGradient>
    <filter
       inkscape:collect="always"
       id="filter3509">
      <feGaussianBlur
         inkscape:collect="always"
         stdDeviation="3.1899598"
         id="feGaussianBlur3511" />
    </filter>
    <linearGradient
       inkscape:collect="always"
       xlink:href="#linearGradient3271"
       id="linearGradient3551"
       gradientUnits="userSpaceOnUse"
       x1="520.39746"
       y1="62.809307"
       x2="567.35925"
       y2="81.682877" />
    <linearGradient
       inkscape:collect="always"
       xlink:href="#linearGradient3427"
       id="linearGradient3553"
       gradientUnits="userSpaceOnUse"
       gradientTransform="matrix(0.8936442,0.4487761,-0.328606,0.9444671,0,0)"
       x1="513.38824"
       y1="51.846115"
       x2="568.81519"
       y2="85.642342" />
    <linearGradient
       inkscape:collect="always"
       xlink:href="#linearGradient8438"
       id="linearGradient3555"
       gradientUnits="userSpaceOnUse"
       gradientTransform="matrix(1.010158,0,0,1.015674,271.3536,-345.89919)"
       x1="24.093048"
       y1="437.99686"
       x2="-36.576378"
       y2="354.82068" />
    <linearGradient
       inkscape:collect="always"
       xlink:href="#linearGradient3108"
       id="linearGradient3557"
       gradientUnits="userSpaceOnUse"
       gradientTransform="matrix(1.028175,0,0,1.007386,269.272,-341.12723)"
       x1="137.4334"
       y1="431.25342"
       x2="82.747902"
       y2="342.44012" />
    <linearGradient
       inkscape:collect="always"
       xlink:href="#linearGradient3224"
       id="linearGradient3559"
       gradientUnits="userSpaceOnUse"
       x1="394.19693"
       y1="150.24727"
       x2="396.41904"
       y2="112.32514" />
    <linearGradient
       inkscape:collect="always"
       xlink:href="#linearGradient3224"
       id="linearGradient3561"
       gradientUnits="userSpaceOnUse"
       x1="329.186"
       y1="128.64067"
       x2="427.61594"
       y2="128.64067" />
    <linearGradient
       inkscape:collect="always"
       xlink:href="#linearGradient3224"
       id="linearGradient3563"
       gradientUnits="userSpaceOnUse"
       gradientTransform="matrix(-0.5645644,0,0,1,515.03271,0)"
       x1="346.81528"
       y1="136.24727"
       x2="343.72354"
       y2="103.82514" />
    <linearGradient
       inkscape:collect="always"
       xlink:href="#linearGradient3224"
       id="linearGradient3565"
       gradientUnits="userSpaceOnUse"
       gradientTransform="matrix(-0.5645644,0,0,1,515.03271,0)"
       x1="329.186"
       y1="128.64067"
       x2="427.61594"
       y2="128.64067" />
    <linearGradient
       inkscape:collect="always"
       xlink:href="#linearGradient11043"
       id="linearGradient3567"
       gradientUnits="userSpaceOnUse"
       gradientTransform="translate(0,-347)"
       x1="369.25159"
       y1="453.81604"
       x2="359.04254"
       y2="494.75803" />
    <linearGradient
       inkscape:collect="always"
       xlink:href="#linearGradient10224"
       id="linearGradient3569"
       gradientUnits="userSpaceOnUse"
       gradientTransform="matrix(1.022569,0,0,0.999971,272.2918,-339.79122)"
       x1="65.943237"
       y1="560.0929"
       x2="66.345688"
       y2="499.35797" />
    <linearGradient
       inkscape:collect="always"
       xlink:href="#linearGradient11117"
       id="linearGradient3571"
       gradientUnits="userSpaceOnUse"
       gradientTransform="matrix(1.015748,0,0,1.010869,271.5776,-344.50332)"
       x1="171.91353"
       y1="537.62311"
       x2="126.18169"
       y2="501.18765" />
    <linearGradient
       inkscape:collect="always"
       xlink:href="#linearGradient2801"
       id="linearGradient3573"
       gradientUnits="userSpaceOnUse"
       gradientTransform="translate(0,-347)"
       x1="426.15332"
       y1="462.36121"
       x2="435.37885"
       y2="480.36121" />
  </defs>
  <sodipodi:namedview
     id="base"
     pagecolor="#ffffff"
     bordercolor="#666666"
     borderopacity="1.0"
     inkscape:pageopacity="0.0"
     inkscape:pageshadow="2"
     inkscape:zoom="0.35355339"
     inkscape:cx="435.64089"
     inkscape:cy="517.67208"
     inkscape:document-units="px"
     inkscape:current-layer="g3513"
     showgrid="false"
     inkscape:showpageshadow="false"
     inkscape:window-width="1015"
     inkscape:window-height="759"
     inkscape:window-x="133"
     inkscape:window-y="194"
     showguides="true"
     inkscape:guide-bbox="true"
     height="700px"
     width="744.09448px" />
  <metadata
     id="metadata7">
    <rdf:RDF>
      <cc:Work
         rdf:about="">
        <dc:format>image/svg+xml</dc:format>
        <dc:type
           rdf:resource="http://purl.org/dc/dcmitype/StillImage" />
        <cc:license
           rdf:resource="http://web.resource.org/cc/PublicDomain" />
        <dc:title>cardboard box</dc:title>
        <dc:date>17 11 2006</dc:date>
        <dc:creator>
          <cc:Agent>
            <dc:title>molumen</dc:title>
          </cc:Agent>
        </dc:creator>
        <dc:subject>
          <rdf:Bag>
            <rdf:li>box</rdf:li>
            <rdf:li>cardboard</rdf:li>
            <rdf:li>open</rdf:li>
            <rdf:li>shadow</rdf:li>
            <rdf:li>empty</rdf:li>
          </rdf:Bag>
        </dc:subject>
        <dc:description>an open cardboard box</dc:description>
      </cc:Work>
      <cc:License
         rdf:about="http://web.resource.org/cc/PublicDomain">
        <cc:permits
           rdf:resource="http://web.resource.org/cc/Reproduction" />
        <cc:permits
           rdf:resource="http://web.resource.org/cc/Distribution" />
        <cc:permits
           rdf:resource="http://web.resource.org/cc/DerivativeWorks" />
      </cc:License>
    </rdf:RDF>
  </metadata>
  <g
     inkscape:label="Livello 1"
     inkscape:groupmode="layer"
     id="layer1">
    <g
       id="g3513"
       transform="matrix(2.0119568,0,0,2.0119568,-406.047,-43.722794)">
      <path
         transform="matrix(0.8936442,0.4487761,-0.328606,0.9444671,0,0)"
         style="fill:url(#linearGradient3551);fill-opacity:1;fill-rule:evenodd;stroke:none;stroke-width:0.44384339;stroke-miterlimit:4;stroke-opacity:1;filter:url(#filter3509)"
         d="M 505.2836,41.703156 L 561.28523,32.690597 L 611.83498,16.899241 L 560.81335,104.79709 L 524.73607,101.05451 L 455.14911,106.9048 L 505.2836,41.703156 z "
         id="path3277"
         sodipodi:nodetypes="ccccccc" />
      <path
         sodipodi:nodetypes="ccccccc"
         id="rect1902"
         d="M 456.83985,273.14646 L 490.84696,282.76659 L 541.20959,290.53769 L 466.73064,350.65703 L 435.72023,330.93167 L 394.6118,315.2281 L 456.83985,273.14646 z "
         style="fill:url(#linearGradient3553);fill-opacity:1;fill-rule:evenodd;stroke:none;stroke-width:0.44384339;stroke-miterlimit:4;stroke-opacity:1" />
      <path
         inkscape:export-ydpi="90"
         inkscape:export-xdpi="90"
         inkscape:export-filename="C:\Documents and Settings\Luca\Documenti\Immagini\Template\Prove\PaccoApertoconMonsterChef .png"
         id="path2210"
         d="M 237.79156,91.97116 L 227.95886,74.51566 L 300.25808,48.91426 L 329.75617,97.95731 L 329.17776,115.24518 L 237.79156,91.97116 z "
         style="fill:url(#linearGradient3555);fill-opacity:1;fill-rule:evenodd;stroke:none;stroke-width:0.20258239;stroke-linecap:butt;stroke-linejoin:miter;stroke-miterlimit:4;stroke-dasharray:none;stroke-opacity:1" />
      <path
         inkscape:export-ydpi="90"
         inkscape:export-xdpi="90"
         inkscape:export-filename="C:\Documents and Settings\Luca\Documenti\Immagini\Template\Prove\PaccoApertoconMonsterChef .png"
         id="path2212"
         d="M 329.25235,97.90537 L 427.19314,118.78019 L 469.25007,99.59879 L 479.04415,73.44783 L 349.41663,48.7962 L 329.25235,97.90537 z "
         style="fill:url(#linearGradient3557);fill-opacity:1;fill-rule:evenodd;stroke:none;stroke-width:0;stroke-linecap:butt;stroke-linejoin:miter;stroke-miterlimit:4;stroke-dasharray:none;stroke-opacity:1" />
      <path
         inkscape:export-ydpi="90"
         inkscape:export-xdpi="90"
         inkscape:export-filename="C:\Documents and Settings\Luca\Documenti\Immagini\Template\Prove\PaccoApertoconMonsterChef .png"
         id="path2214"
         d="M 329.75827,97.28555 L 329.186,115.36418 L 366.38336,124.40349 L 394.99673,159.9958 L 427.61595,118.18896 L 329.75827,97.28555 z "
         style="fill:url(#linearGradient3559);fill-opacity:1;fill-rule:evenodd;stroke:url(#linearGradient3561);stroke-width:0;stroke-linecap:butt;stroke-linejoin:miter;stroke-miterlimit:4;stroke-dasharray:none;stroke-opacity:1" />
      <path
         sodipodi:nodetypes="cccccc"
         style="fill:url(#linearGradient3563);fill-opacity:1;fill-rule:evenodd;stroke:url(#linearGradient3565);stroke-width:0;stroke-linecap:butt;stroke-linejoin:miter;stroke-miterlimit:4;stroke-dasharray:none;stroke-opacity:1"
         d="M 329.61292,97.53555 L 329.1235,115.61418 L 308.18569,124.40349 L 292.0316,159.9958 L 273.61595,118.18896 L 329.61292,97.53555 z "
         id="path3232"
         inkscape:export-filename="C:\Documents and Settings\Luca\Documenti\Immagini\Template\Prove\PaccoApertoconMonsterChef .png"
         inkscape:export-xdpi="90"
         inkscape:export-ydpi="90" />
      <path
         sodipodi:nodetypes="cc"
         inkscape:export-ydpi="90"
         inkscape:export-xdpi="90"
         inkscape:export-filename="C:\Documents and Settings\Luca\Documenti\Immagini\Template\Prove\PaccoApertoconMonsterChef .png"
         id="path14603"
         d="M 329.64774,97.449267 L 257.25823,124.33878"
         style="opacity:1;fill:#c87137;fill-opacity:1;fill-rule:evenodd;stroke:#a16644;stroke-width:0.5;stroke-linecap:butt;stroke-linejoin:round;stroke-miterlimit:4;stroke-dasharray:none;stroke-opacity:1" />
      <path
         style="opacity:1;fill:#c87137;fill-opacity:1;fill-rule:evenodd;stroke:#a16644;stroke-width:0.5;stroke-linecap:butt;stroke-linejoin:round;stroke-miterlimit:4;stroke-dasharray:none;stroke-opacity:1"
         d="M 329.60355,97.42717 L 328.93371,127.61651"
         id="path3242"
         inkscape:export-filename="C:\Documents and Settings\Luca\Documenti\Immagini\Template\Prove\PaccoApertoconMonsterChef .png"
         inkscape:export-xdpi="90"
         inkscape:export-ydpi="90"
         sodipodi:nodetypes="cc" />
      <path
         inkscape:export-ydpi="90"
         inkscape:export-xdpi="90"
         inkscape:export-filename="C:\Documents and Settings\Luca\Documenti\Immagini\Template\Prove\PaccoApertoconMonsterChef .png"
         id="path2206"
         d="M 230.16614,90.32953 L 366.84131,122.50598 L 396.33703,159.30253 L 256.55367,125.41053 L 230.16614,90.32953 z "
         style="fill:#a3693c;fill-opacity:1;fill-rule:evenodd;stroke:url(#linearGradient3567);stroke-width:0.81099999;stroke-linecap:round;stroke-linejoin:round;stroke-miterlimit:4;stroke-dasharray:none;stroke-opacity:1" />
      <path
         sodipodi:nodetypes="ccccc"
         inkscape:export-ydpi="90"
         inkscape:export-xdpi="90"
         inkscape:export-filename="C:\Documents and Settings\Luca\Documenti\Immagini\Template\Prove\PaccoApertoconMonsterChef .png"
         id="path2204"
         d="M 256.57504,125.31152 L 395.4558,158.86432 L 394.66339,315.25938 L 262.30484,272.45189 L 256.57504,125.31152 z "
         style="fill:url(#linearGradient3569);fill-opacity:1;fill-rule:evenodd;stroke:none;stroke-width:0.106;stroke-linecap:butt;stroke-linejoin:miter;stroke-miterlimit:4;stroke-dasharray:none;stroke-opacity:1" />
      <path
         sodipodi:nodetypes="ccccc"
         inkscape:export-ydpi="90"
         inkscape:export-xdpi="90"
         inkscape:export-filename="C:\Documents and Settings\Luca\Documenti\Immagini\Template\Prove\PaccoApertoconMonsterChef .png"
         id="path2219"
         d="M 395.41117,158.85346 L 460.55847,125.36217 L 456.91024,273.18465 L 394.65228,315.26121 L 395.41117,158.85346 z "
         style="fill:url(#linearGradient3571);fill-opacity:1;fill-rule:evenodd;stroke:none;stroke-width:0;stroke-linecap:butt;stroke-linejoin:miter;stroke-miterlimit:4;stroke-dasharray:none;stroke-opacity:1" />
      <path
         sodipodi:nodetypes="ccccc"
         inkscape:export-ydpi="90"
         inkscape:export-xdpi="90"
         inkscape:export-filename="C:\Documents and Settings\Luca\Documenti\Immagini\Template\Prove\PaccoApertoconMonsterChef .png"
         id="path2217"
         d="M 395.40331,159.04016 L 459.76528,126.23032 L 493.35438,87.68225 L 422.05923,116.43304 L 395.40331,159.04016 z "
         style="fill:#71472d;fill-opacity:1;fill-rule:evenodd;stroke:url(#linearGradient3573);stroke-width:0.5;stroke-linecap:round;stroke-linejoin:round;stroke-miterlimit:4;stroke-dasharray:none;stroke-opacity:1" />
    </g>
  </g>
</svg>
